%YAML 1.1
%TAG !u! tag:unity3d.com,2011:
--- !u!114 &11400000
MonoBehaviour:
  m_ObjectHideFlags: 0
  m_CorrespondingSourceObject: {fileID: 0}
  m_PrefabInstance: {fileID: 0}
  m_PrefabAsset: {fileID: 0}
  m_GameObject: {fileID: 0}
  m_Enabled: 1
  m_EditorHideFlags: 0
  m_Script: {fileID: 11500000, guid: 68f91cf5fe8df0740acabf20863fd946, type: 3}
  m_Name: Bow Red Arrow
  m_EditorClassIdentifier: 
  animatorOverride: {fileID: 22100000, guid: 83cc7dea6b183fc47b3d8f7f583fe60d, type: 2}
  equippedPrefab: {fileID: 1948343515768726266, guid: 80f01e179baa4874a8315bfc78405684, type: 3}
  weaponDamage: 10
  percentageBonus: 10
  weaponRange: 13
  isRightHanded: 0
  projectile: {fileID: 2712611464344204144, guid: b88e9d477f2fe7d4d9fdd3c8feb3352b, type: 3}
