%YAML 1.1
%TAG !u! tag:unity3d.com,2011:
--- !u!1 &980624297092823645
GameObject:
  m_ObjectHideFlags: 0
  m_CorrespondingSourceObject: {fileID: 0}
  m_PrefabInstance: {fileID: 0}
  m_PrefabAsset: {fileID: 0}
  serializedVersion: 6
  m_Component:
  - component: {fileID: 980624297092823650}
  m_Layer: 0
  m_Name: Damage Text Obj
  m_TagString: Untagged
  m_Icon: {fileID: 0}
  m_NavMeshLayer: 0
  m_StaticEditorFlags: 0
  m_IsActive: 1
--- !u!4 &980624297092823650
Transform:
  m_ObjectHideFlags: 0
  m_CorrespondingSourceObject: {fileID: 0}
  m_PrefabInstance: {fileID: 0}
  m_PrefabAsset: {fileID: 0}
  m_GameObject: {fileID: 980624297092823645}
  m_LocalRotation: {x: 0, y: 0, z: 0, w: 1}
  m_LocalPosition: {x: -0.035121832, y: 0.414, z: -0.18920437}
  m_LocalScale: {x: 1, y: 1, z: 1}
  m_ConstrainProportionsScale: 0
  m_Children:
  - {fileID: 4204518999679858550}
  m_Father: {fileID: 0}
  m_RootOrder: 0
  m_LocalEulerAnglesHint: {x: 0, y: 0, z: 0}
--- !u!1001 &980624297571606180
PrefabInstance:
  m_ObjectHideFlags: 0
  serializedVersion: 2
  m_Modification:
    m_TransformParent: {fileID: 980624297092823650}
    m_Modifications:
    - target: {fileID: 1073582287325315705, guid: d7dbc63945aca6448813a6dbf540ec8c, type: 3}
      propertyPath: m_Name
      value: Damage Text
      objectReference: {fileID: 0}
    - target: {fileID: 4017935834766584274, guid: d7dbc63945aca6448813a6dbf540ec8c, type: 3}
      propertyPath: m_Pivot.x
      value: 0.5
      objectReference: {fileID: 0}
    - target: {fileID: 4017935834766584274, guid: d7dbc63945aca6448813a6dbf540ec8c, type: 3}
      propertyPath: m_Pivot.y
      value: 0.5
      objectReference: {fileID: 0}
    - target: {fileID: 4017935834766584274, guid: d7dbc63945aca6448813a6dbf540ec8c, type: 3}
      propertyPath: m_RootOrder
      value: 0
      objectReference: {fileID: 0}
    - target: {fileID: 4017935834766584274, guid: d7dbc63945aca6448813a6dbf540ec8c, type: 3}
      propertyPath: m_AnchorMax.x
      value: 0.5
      objectReference: {fileID: 0}
    - target: {fileID: 4017935834766584274, guid: d7dbc63945aca6448813a6dbf540ec8c, type: 3}
      propertyPath: m_AnchorMax.y
      value: 0.5
      objectReference: {fileID: 0}
    - target: {fileID: 4017935834766584274, guid: d7dbc63945aca6448813a6dbf540ec8c, type: 3}
      propertyPath: m_AnchorMin.x
      value: 0.5
      objectReference: {fileID: 0}
    - target: {fileID: 4017935834766584274, guid: d7dbc63945aca6448813a6dbf540ec8c, type: 3}
      propertyPath: m_AnchorMin.y
      value: 0.5
      objectReference: {fileID: 0}
    - target: {fileID: 4017935834766584274, guid: d7dbc63945aca6448813a6dbf540ec8c, type: 3}
      propertyPath: m_SizeDelta.x
      value: 200
      objectReference: {fileID: 0}
    - target: {fileID: 4017935834766584274, guid: d7dbc63945aca6448813a6dbf540ec8c, type: 3}
      propertyPath: m_SizeDelta.y
      value: 100
      objectReference: {fileID: 0}
    - target: {fileID: 4017935834766584274, guid: d7dbc63945aca6448813a6dbf540ec8c, type: 3}
      propertyPath: m_LocalPosition.x
      value: 0
      objectReference: {fileID: 0}
    - target: {fileID: 4017935834766584274, guid: d7dbc63945aca6448813a6dbf540ec8c, type: 3}
      propertyPath: m_LocalPosition.y
      value: 0
      objectReference: {fileID: 0}
    - target: {fileID: 4017935834766584274, guid: d7dbc63945aca6448813a6dbf540ec8c, type: 3}
      propertyPath: m_LocalPosition.z
      value: 0
      objectReference: {fileID: 0}
    - target: {fileID: 4017935834766584274, guid: d7dbc63945aca6448813a6dbf540ec8c, type: 3}
      propertyPath: m_LocalRotation.w
      value: 1
      objectReference: {fileID: 0}
    - target: {fileID: 4017935834766584274, guid: d7dbc63945aca6448813a6dbf540ec8c, type: 3}
      propertyPath: m_LocalRotation.x
      value: -0
      objectReference: {fileID: 0}
    - target: {fileID: 4017935834766584274, guid: d7dbc63945aca6448813a6dbf540ec8c, type: 3}
      propertyPath: m_LocalRotation.y
      value: -0
      objectReference: {fileID: 0}
    - target: {fileID: 4017935834766584274, guid: d7dbc63945aca6448813a6dbf540ec8c, type: 3}
      propertyPath: m_LocalRotation.z
      value: -0
      objectReference: {fileID: 0}
    - target: {fileID: 4017935834766584274, guid: d7dbc63945aca6448813a6dbf540ec8c, type: 3}
      propertyPath: m_AnchoredPosition.x
      value: 0
      objectReference: {fileID: 0}
    - target: {fileID: 4017935834766584274, guid: d7dbc63945aca6448813a6dbf540ec8c, type: 3}
      propertyPath: m_AnchoredPosition.y
      value: 0
      objectReference: {fileID: 0}
    - target: {fileID: 4017935834766584274, guid: d7dbc63945aca6448813a6dbf540ec8c, type: 3}
      propertyPath: m_LocalEulerAnglesHint.x
      value: 0
      objectReference: {fileID: 0}
    - target: {fileID: 4017935834766584274, guid: d7dbc63945aca6448813a6dbf540ec8c, type: 3}
      propertyPath: m_LocalEulerAnglesHint.y
      value: 0
      objectReference: {fileID: 0}
    - target: {fileID: 4017935834766584274, guid: d7dbc63945aca6448813a6dbf540ec8c, type: 3}
      propertyPath: m_LocalEulerAnglesHint.z
      value: 0
      objectReference: {fileID: 0}
    - target: {fileID: 9149899646603238833, guid: d7dbc63945aca6448813a6dbf540ec8c, type: 3}
      propertyPath: m_PresetInfoIsWorld
      value: 1
      objectReference: {fileID: 0}
    m_RemovedComponents: []
  m_SourcePrefab: {fileID: 100100000, guid: d7dbc63945aca6448813a6dbf540ec8c, type: 3}
--- !u!224 &4204518999679858550 stripped
RectTransform:
  m_CorrespondingSourceObject: {fileID: 4017935834766584274, guid: d7dbc63945aca6448813a6dbf540ec8c, type: 3}
  m_PrefabInstance: {fileID: 980624297571606180}
  m_PrefabAsset: {fileID: 0}
