%YAML 1.1
%TAG !u! tag:unity3d.com,2011:
--- !u!1001 &3428774038377413632
PrefabInstance:
  m_ObjectHideFlags: 0
  serializedVersion: 2
  m_Modification:
    m_TransformParent: {fileID: 0}
    m_Modifications:
    - target: {fileID: 2562191841330304644, guid: ec9374b58be339e4aa22c90560585018, type: 3}
      propertyPath: m_Materials.Array.data[0]
      value: 
      objectReference: {fileID: 2100000, guid: bfbe2e8b331e2cc42be1591f949c0e41, type: 2}
    - target: {fileID: 2818141842481225429, guid: ec9374b58be339e4aa22c90560585018, type: 3}
      propertyPath: defaultWeapon
      value: 
      objectReference: {fileID: 11400000, guid: 9475cc0bf848ef34f9137641d4191287, type: 2}
    - target: {fileID: 4602246236660621364, guid: ec9374b58be339e4aa22c90560585018, type: 3}
      propertyPath: characterClass
      value: 3
      objectReference: {fileID: 0}
    - target: {fileID: 7623155227866766809, guid: ec9374b58be339e4aa22c90560585018, type: 3}
      propertyPath: chaseDistance
      value: 20
      objectReference: {fileID: 0}
    - target: {fileID: 8427007315278364843, guid: ec9374b58be339e4aa22c90560585018, type: 3}
      propertyPath: m_Name
      value: Archer
      objectReference: {fileID: 0}
    - target: {fileID: 8427007315278364847, guid: ec9374b58be339e4aa22c90560585018, type: 3}
      propertyPath: m_RootOrder
      value: 0
      objectReference: {fileID: 0}
    - target: {fileID: 8427007315278364847, guid: ec9374b58be339e4aa22c90560585018, type: 3}
      propertyPath: m_LocalPosition.x
      value: 0
      objectReference: {fileID: 0}
    - target: {fileID: 8427007315278364847, guid: ec9374b58be339e4aa22c90560585018, type: 3}
      propertyPath: m_LocalPosition.y
      value: 0
      objectReference: {fileID: 0}
    - target: {fileID: 8427007315278364847, guid: ec9374b58be339e4aa22c90560585018, type: 3}
      propertyPath: m_LocalPosition.z
      value: 0
      objectReference: {fileID: 0}
    - target: {fileID: 8427007315278364847, guid: ec9374b58be339e4aa22c90560585018, type: 3}
      propertyPath: m_LocalRotation.w
      value: 0.11906468
      objectReference: {fileID: 0}
    - target: {fileID: 8427007315278364847, guid: ec9374b58be339e4aa22c90560585018, type: 3}
      propertyPath: m_LocalRotation.x
      value: -0
      objectReference: {fileID: 0}
    - target: {fileID: 8427007315278364847, guid: ec9374b58be339e4aa22c90560585018, type: 3}
      propertyPath: m_LocalRotation.y
      value: -0.99288654
      objectReference: {fileID: 0}
    - target: {fileID: 8427007315278364847, guid: ec9374b58be339e4aa22c90560585018, type: 3}
      propertyPath: m_LocalRotation.z
      value: -0
      objectReference: {fileID: 0}
    - target: {fileID: 8427007315278364847, guid: ec9374b58be339e4aa22c90560585018, type: 3}
      propertyPath: m_LocalEulerAnglesHint.x
      value: 0
      objectReference: {fileID: 0}
    - target: {fileID: 8427007315278364847, guid: ec9374b58be339e4aa22c90560585018, type: 3}
      propertyPath: m_LocalEulerAnglesHint.y
      value: -166.324
      objectReference: {fileID: 0}
    - target: {fileID: 8427007315278364847, guid: ec9374b58be339e4aa22c90560585018, type: 3}
      propertyPath: m_LocalEulerAnglesHint.z
      value: 0
      objectReference: {fileID: 0}
    m_RemovedComponents: []
  m_SourcePrefab: {fileID: 100100000, guid: ec9374b58be339e4aa22c90560585018, type: 3}
